Fatal Police Shootings data. — fatal_police_shootings • usdata
…
  mutate(freq = n / sum(n) * 100)
#> # A tibble: 7 × 3
#>   race      n   freq
#>   <chr> <int>  <dbl>
#> 1 A       105  1.64 
#> 2 B      1528 23.8  
#> 3 H      1066 16.6  
#> 4 N        90  1.40 
#> 5 O        47  0.732
#> 6 W      2919 45.5  
#> 7 NA      666 10.4  
# List different weapons that victims were armed with
fatal_police_shootings |>
  distinct(armed)
#> # A tibble: 99 × 1
#>    armed     
#>    <chr>     
#>  1 gun       
#>  2 unarmed   
#>  3 toy weapon
#>  4 nail gun  
#>  5 knife     
#>  6 NA        
#>  7 shovel    
#>  8 vehicle   
#>  9 hammer    
#> 10 hatchet   
#> # ℹ 89 more rows
…
