Population Age 2019 Data. — pop_age_2019 • usdata
…
    Source

    Centers for Disease Control and Prevention

    Examples

library(dplyr)

# List age population for each state with percent of total
pop_age_2019 %>%
  group_by(state_name, age) %>%
  mutate(percent = population / state_total_population * 100) %>%
  select(state_name, age, population, percent)
#> # A tibble: 4,386 × 4
#> # Groups:   state_name, age [4,386]
#>    state_name age   population percent
#>    <chr>      <chr>      <int>   <dbl>
#>  1 Alabama    0          56901    1.16
#>  2 Alabama    1          58290    1.19
#>  3 Alabama    2          59073    1.20
#>  4 Alabama    3          59799    1.22
#>  5 Alabama    4          60294    1.23
#>  6 Alabama    5          59568    1.21
#>  7 Alabama    6          58599    1.20
#>  8 Alabama    7          59537    1.21
#>  9 Alabama    8          60023    1.22
#> 10 Alabama    9          60241    1.23
#> # … with 4,376 more rows
…
